{
    "defaultSeverity": "error",
    "extends": [
        "tslint:recommended"
    ],
    "jsRules": {},
    "rules": {
      "no-unused-expression": false,
      "only-arrow-functions": false,
      "interface-name": false
    },
    "rulesDirectory": []
}
